[
  [
    [
      0.8780487804878049,
      0.8699186991869918,
      0.8699186991869918,
      0.8699186991869918,
      0.8780487804878049,
      0.8780487804878049,
      0.8780487804878049,
      0.8780487804878049,
      0.9186991869918699,
      0.8780487804878049
    ],
    [
      0.8773584905660378,
      0.8679245283018868,
      0.8679245283018868,
      0.8773584905660378,
      0.8679245283018868,
      0.8679245283018868,
      0.8584905660377359,
      0.8679245283018868,
      0.8584905660377359,
      0.8584905660377359
    ],
    [
      0.3076923076923077,
      0.3076923076923077,
      0.3076923076923077,
      0.2980769230769231,
      0.3173076923076923,
      0.3076923076923077,
      0.3269230769230769,
      0.3173076923076923,
      0.33653846153846156,
      0.34615384615384615
    ],
    [
      0.5327727348666258,
      0.6255638469677561,
      0.627060477808097,
      0.5410912179094503,
      0.44614217296875863,
      0.4490310185443003,
      0.586477418276995,
      0.603079578994264,
      0.5778108815503703,
      0.4629879712646878
    ],
    [
      0.014083394341878063,
      0.014083394341878063,
      0.014083394341878063,
      0.013964081430009845,
      0.013964081430009845,
      0.014083394341878063,
      0.014083394341878063,
      0.014083394341878063,
      0.014083394341878063,
      0.014202800394192706
    ],
    [
      0.0,
      0.0,
      0.0,
      0.0,
      0.0,
      0.0,
      0.0,
      0.0,
      0.0,
      0.0
    ],
    [
      0.5482954545454543,
      0.5482954545454543,
      0.5482954545454543,
      0.5482954545454543,
      0.5482954545454543,
      0.5482954545454543,
      0.5482954545454543,
      0.5482954545454543,
      0.5482954545454543,
      0.5511363636363633
    ],
    [
      0.937984496124031,
      0.937984496124031,
      0.937984496124031,
      0.937984496124031,
      0.937984496124031,
      0.937984496124031,
      0.9534883720930233,
      0.9534883720930233,
      0.9534883720930233,
      0.9534883720930233
    ],
    [
      0.2160966159786968,
      0.2160966159786968,
      0.2160966159786968,
      0.2160966159786968,
      0.2160966159786968,
      0.2160966159786968,
      0.12916685563971156,
      0.12916685563971156,
      0.12916685563971156,
      0.12916685563971156
    ],
    [
      0.47826124156695315,
      0.47826124156695315,
      0.47826124156695315,
      0.47826124156695315,
      0.47826124156695315,
      0.47826124156695315,
      0.033706519274618936,
      0.033706519274618936,
      0.033706519274618936,
      0.033706519274618936
    ],
    [
      0.35426120691189295,
      0.35426120691189295,
      0.35426120691189295,
      0.35426120691189295,
      0.35426120691189295,
      0.35426120691189295,
      0.11526346697987294,
      0.11526346697987294,
      0.11526346697987294,
      0.11526346697987294
    ],
    [
      0.2870354364736387,
      0.2870354364736387,
      0.2870354364736387,
      0.2870354364736387,
      0.2870354364736387,
      0.2870354364736387,
      0.07083837510803803,
      0.07083837510803803,
      0.07083837510803803,
      0.07083837510803803
    ],
    [
      1.0,
      1.0,
      1.0,
      1.0,
      1.0,
      1.0,
      0.02689486342442096,
      0.02689486342442096,
      0.02689486342442096,
      0.02689486342442096
    ],
    [
      0.1537885963640493,
      0.1537885963640493,
      0.1537885963640493,
      0.1537885963640493,
      0.1537885963640493,
      0.1537885963640493,
      0.47453786812645155,
      0.47453786812645155,
      0.47453786812645155,
      0.47453786812645155
    ],
    [
      0.5943586690209283,
      0.5943586690209283,
      0.5943586690209283,
      0.5943586690209283,
      0.5943586690209283,
      0.5943586690209283,
      0.032599223458665824,
      0.032599223458665824,
      0.032599223458665824,
      0.032599223458665824
    ],
    [
      0.34895152955495745,
      0.34895152955495745,
      0.34895152955495745,
      0.34895152955495745,
      0.34895152955495745,
      0.34895152955495745,
      0.009674153118130644,
      0.009674153118130644,
      0.009674153118130644,
      0.009674153118130644
    ]
  ],
  [
    [
      0.8780487804878049,
      0.8861788617886179,
      0.8699186991869918,
      0.8699186991869918,
      0.8780487804878049,
      0.8699186991869918,
      0.8699186991869918,
      0.8699186991869918,
      0.8780487804878049,
      0.8780487804878049
    ],
    [
      0.8584905660377359,
      0.8584905660377359,
      0.8679245283018868,
      0.8867924528301887,
      0.8584905660377359,
      0.8773584905660378,
      0.8679245283018868,
      0.8679245283018868,
      0.8679245283018868,
      0.8773584905660378
    ],
    [
      0.34615384615384615,
      0.36538461538461536,
      0.33653846153846156,
      0.33653846153846156,
      0.3557692307692308,
      0.33653846153846156,
      0.34615384615384615,
      0.33653846153846156,
      0.34615384615384615,
      0.33653846153846156
    ],
    [
      0.4629879712646878,
      0.5452678621150525,
      0.6199253772901931,
      0.5909325054296374,
      0.5469037144289134,
      0.48442807818677946,
      0.5261945202428022,
      0.5917678342707579,
      0.5620788550426017,
      0.5202428022498189
    ],
    [
      0.014202800394192706,
      0.014202800394192706,
      0.014202800394192706,
      0.013964081430009845,
      0.013964081430009845,
      0.014202800394192706,
      0.014202800394192706,
      0.014083394341878063,
      0.014083394341878063,
      0.014083394341878063
    ],
    [
      0.0,
      0.0,
      0.0,
      0.0,
      0.0,
      0.0,
      0.0,
      0.0,
      0.0,
      0.0
    ],
    [
      0.5511363636363633,
      0.5511363636363633,
      0.5511363636363633,
      0.5511363636363633,
      0.5511363636363633,
      0.5511363636363633,
      0.5511363636363633,
      0.5511363636363633,
      0.5511363636363633,
      0.5482954545454543
    ],
    [
      0.9534883720930233,
      0.9534883720930233,
      0.9534883720930233,
      0.9534883720930233,
      0.9534883720930233,
      0.9534883720930233,
      0.9457364341085271,
      0.9457364341085271,
      0.9457364341085271,
      0.9457364341085271
    ],
    [
      0.12916685563971156,
      0.12916685563971156,
      0.12916685563971156,
      0.12916685563971156,
      0.12916685563971156,
      0.12916685563971156,
      0.13633919257757074,
      0.13633919257757074,
      0.13633919257757074,
      0.13633919257757074
    ],
    [
      0.033706519274618936,
      0.033706519274618936,
      0.033706519274618936,
      0.033706519274618936,
      0.033706519274618936,
      0.033706519274618936,
      0.10012277917288762,
      0.10012277917288762,
      0.10012277917288762,
      0.10012277917288762
    ],
    [
      0.11526346697987294,
      0.11526346697987294,
      0.11526346697987294,
      0.11526346697987294,
      0.11526346697987294,
      0.11526346697987294,
      0.1642197426725749,
      0.1642197426725749,
      0.1642197426725749,
      0.1642197426725749
    ],
    [
      0.07083837510803803,
      0.07083837510803803,
      0.07083837510803803,
      0.07083837510803803,
      0.07083837510803803,
      0.07083837510803803,
      0.13702103140305388,
      0.13702103140305388,
      0.13702103140305388,
      0.13702103140305388
    ],
    [
      0.02689486342442096,
      0.02689486342442096,
      0.02689486342442096,
      0.02689486342442096,
      0.02689486342442096,
      0.02689486342442096,
      0.31218005709072766,
      0.31218005709072766,
      0.31218005709072766,
      0.31218005709072766
    ],
    [
      0.47453786812645155,
      0.47453786812645155,
      0.47453786812645155,
      0.47453786812645155,
      0.47453786812645155,
      0.47453786812645155,
      0.08522975444591994,
      0.08522975444591994,
      0.08522975444591994,
      0.08522975444591994
    ],
    [
      0.032599223458665824,
      0.032599223458665824,
      0.032599223458665824,
      0.032599223458665824,
      0.032599223458665824,
      0.032599223458665824,
      0.2396681677365782,
      0.2396681677365782,
      0.2396681677365782,
      0.2396681677365782
    ],
    [
      0.009674153118130644,
      0.009674153118130644,
      0.009674153118130644,
      0.009674153118130644,
      0.009674153118130644,
      0.009674153118130644,
      0.4781413454627487,
      0.4781413454627487,
      0.4781413454627487,
      0.4781413454627487
    ]
  ],
  [
    [
      0.8780487804878049,
      0.8780487804878049,
      0.8780487804878049,
      0.8780487804878049,
      0.8861788617886179,
      0.8780487804878049,
      0.8780487804878049,
      0.8780487804878049,
      0.9024390243902439,
      0.8780487804878049
    ],
    [
      0.8773584905660378,
      0.8679245283018868,
      0.8679245283018868,
      0.8773584905660378,
      0.8679245283018868,
      0.8773584905660378,
      0.8773584905660378,
      0.8679245283018868,
      0.8867924528301887,
      0.8584905660377359
    ],
    [
      0.33653846153846156,
      0.34615384615384615,
      0.34615384615384615,
      0.33653846153846156,
      0.34615384615384615,
      0.3269230769230769,
      0.33653846153846156,
      0.34615384615384615,
      0.33653846153846156,
      0.34615384615384615
    ],
    [
      0.5202428022498189,
      0.4428356629726568,
      0.5023876482708692,
      0.49104109817898306,
      0.47739739377401563,
      0.4085523751183382,
      0.3811953555716433,
      0.48449768892353956,
      0.5604081973603608,
      0.5411956340145904
    ],
    [
      0.014083394341878063,
      0.014083394341878063,
      0.014083394341878063,
      0.013964081430009845,
      0.013964081430009845,
      0.014202800394192706,
      0.014202800394192706,
      0.013606049553958766,
      0.013606049553958766,
      0.013725362465826984
    ],
    [
      0.0,
      0.0,
      0.0,
      0.0,
      0.0,
      0.0,
      0.0,
      0.0,
      0.0,
      0.0
    ],
    [
      0.5482954545454543,
      0.5482954545454543,
      0.5482954545454543,
      0.5482954545454543,
      0.5482954545454543,
      0.5482954545454543,
      0.5482954545454543,
      0.5482954545454543,
      0.5482954545454543,
      0.5511363636363633
    ],
    [
      0.9457364341085271,
      0.9457364341085271,
      0.9457364341085271,
      0.9457364341085271,
      0.9457364341085271,
      0.9457364341085271,
      0.937984496124031,
      0.937984496124031,
      0.937984496124031,
      0.937984496124031
    ],
    [
      0.13633919257757074,
      0.13633919257757074,
      0.13633919257757074,
      0.13633919257757074,
      0.13633919257757074,
      0.13633919257757074,
      0.1601757125363638,
      0.1601757125363638,
      0.1601757125363638,
      0.1601757125363638
    ],
    [
      0.10012277917288762,
      0.10012277917288762,
      0.10012277917288762,
      0.10012277917288762,
      0.10012277917288762,
      0.10012277917288762,
      0.5761851184797628,
      0.5761851184797628,
      0.5761851184797628,
      0.5761851184797628
    ],
    [
      0.1642197426725749,
      0.1642197426725749,
      0.1642197426725749,
      0.1642197426725749,
      0.1642197426725749,
      0.1642197426725749,
      0.11914295374868755,
      0.11914295374868755,
      0.11914295374868755,
      0.11914295374868755
    ],
    [
      0.13702103140305388,
      0.13702103140305388,
      0.13702103140305388,
      0.13702103140305388,
      0.13702103140305388,
      0.13702103140305388,
      0.1321117833477384,
      0.1321117833477384,
      0.1321117833477384,
      0.1321117833477384
    ],
    [
      0.31218005709072766,
      0.31218005709072766,
      0.31218005709072766,
      0.31218005709072766,
      0.31218005709072766,
      0.31218005709072766,
      0.8333282484800227,
      0.8333282484800227,
      0.8333282484800227,
      0.8333282484800227
    ],
    [
      0.08522975444591994,
      0.08522975444591994,
      0.08522975444591994,
      0.08522975444591994,
      0.08522975444591994,
      0.08522975444591994,
      0.19439107262343508,
      0.19439107262343508,
      0.19439107262343508,
      0.19439107262343508
    ],
    [
      0.2396681677365782,
      0.2396681677365782,
      0.2396681677365782,
      0.2396681677365782,
      0.2396681677365782,
      0.2396681677365782,
      0.13435944464975796,
      0.13435944464975796,
      0.13435944464975796,
      0.13435944464975796
    ],
    [
      0.4781413454627487,
      0.4781413454627487,
      0.4781413454627487,
      0.4781413454627487,
      0.4781413454627487,
      0.4781413454627487,
      0.17594997140773616,
      0.17594997140773616,
      0.17594997140773616,
      0.17594997140773616
    ]
  ],
  [
    [
      0.8780487804878049,
      0.8780487804878049,
      0.8780487804878049,
      0.8861788617886179,
      0.8780487804878049,
      0.8780487804878049,
      0.8780487804878049,
      0.8780487804878049,
      0.8780487804878049,
      0.8780487804878049
    ],
    [
      0.8584905660377359,
      0.8867924528301887,
      0.8773584905660378,
      0.8773584905660378,
      0.8773584905660378,
      0.8773584905660378,
      0.8679245283018868,
      0.8773584905660378,
      0.8773584905660378,
      0.8773584905660378
    ],
    [
      0.34615384615384615,
      0.3173076923076923,
      0.33653846153846156,
      0.3269230769230769,
      0.33653846153846156,
      0.33653846153846156,
      0.33653846153846156,
      0.33653846153846156,
      0.33653846153846156,
      0.33653846153846156
    ],
    [
      0.5411956340145904,
      0.5120287353121346,
      0.4274168847803085,
      0.49901152753800737,
      0.4484393272818399,
      0.4034011805980954,
      0.34085593361920136,
      0.39424736871415045,
      0.6073258339366263,
      0.5752352842902488
    ],
    [
      0.013725362465826984,
      0.013725362465826984,
      0.013725362465826984,
      0.013725362465826984,
      0.013725362465826984,
      0.013844675377695202,
      0.013844675377695202,
      0.013725362465826984,
      0.013725362465826984,
      0.013844675377695202
    ],
    [
      0.0,
      0.0,
      0.0,
      0.0,
      0.0,
      0.0,
      0.0,
      0.0,
      0.0,
      0.0
    ],
    [
      0.5511363636363633,
      0.5511363636363633,
      0.5511363636363633,
      0.5511363636363633,
      0.5511363636363633,
      0.5511363636363633,
      0.5511363636363633,
      0.5511363636363633,
      0.5511363636363633,
      0.5511363636363633
    ],
    [
      0.937984496124031,
      0.937984496124031,
      0.937984496124031,
      0.937984496124031,
      0.937984496124031,
      0.937984496124031,
      0.9147286821705426,
      0.9147286821705426,
      0.9147286821705426,
      0.9147286821705426
    ],
    [
      0.1601757125363638,
      0.1601757125363638,
      0.1601757125363638,
      0.1601757125363638,
      0.1601757125363638,
      0.1601757125363638,
      0.0008293217055519201,
      0.0008293217055519201,
      0.0008293217055519201,
      0.0008293217055519201
    ],
    [
      0.5761851184797628,
      0.5761851184797628,
      0.5761851184797628,
      0.5761851184797628,
      0.5761851184797628,
      0.5761851184797628,
      0.013839394574615084,
      0.013839394574615084,
      0.013839394574615084,
      0.013839394574615084
    ],
    [
      0.11914295374868755,
      0.11914295374868755,
      0.11914295374868755,
      0.11914295374868755,
      0.11914295374868755,
      0.11914295374868755,
      0.016211983699037247,
      0.016211983699037247,
      0.016211983699037247,
      0.016211983699037247
    ],
    [
      0.1321117833477384,
      0.1321117833477384,
      0.1321117833477384,
      0.1321117833477384,
      0.1321117833477384,
      0.1321117833477384,
      0.003462978968596946,
      0.003462978968596946,
      0.003462978968596946,
      0.003462978968596946
    ],
    [
      0.8333282484800227,
      0.8333282484800227,
      0.8333282484800227,
      0.8333282484800227,
      0.8333282484800227,
      0.8333282484800227,
      0.02570328892609187,
      0.02570328892609187,
      0.02570328892609187,
      0.02570328892609187
    ],
    [
      0.19439107262343508,
      0.19439107262343508,
      0.19439107262343508,
      0.19439107262343508,
      0.19439107262343508,
      0.19439107262343508,
      0.016396494214575962,
      0.016396494214575962,
      0.016396494214575962,
      0.016396494214575962
    ],
    [
      0.13435944464975796,
      0.13435944464975796,
      0.13435944464975796,
      0.13435944464975796,
      0.13435944464975796,
      0.13435944464975796,
      0.001314006487907034,
      0.001314006487907034,
      0.001314006487907034,
      0.001314006487907034
    ],
    [
      0.17594997140773616,
      0.17594997140773616,
      0.17594997140773616,
      0.17594997140773616,
      0.17594997140773616,
      0.17594997140773616,
      0.002250657097439287,
      0.002250657097439287,
      0.002250657097439287,
      0.002250657097439287
    ]
  ],
  [
    [
      0.8780487804878049,
      0.8780487804878049,
      0.8780487804878049,
      0.8780487804878049,
      0.8780487804878049,
      0.8780487804878049,
      0.8780487804878049,
      0.8780487804878049,
      0.8780487804878049,
      0.8780487804878049
    ],
    [
      0.8773584905660378,
      0.8679245283018868,
      0.8773584905660378,
      0.8773584905660378,
      0.8773584905660378,
      0.8773584905660378,
      0.8679245283018868,
      0.8679245283018868,
      0.8679245283018868,
      0.8679245283018868
    ],
    [
      0.33653846153846156,
      0.33653846153846156,
      0.33653846153846156,
      0.33653846153846156,
      0.33653846153846156,
      0.3269230769230769,
      0.33653846153846156,
      0.3269230769230769,
      0.33653846153846156,
      0.33653846153846156
    ],
    [
      0.5752352842902488,
      0.512933674890015,
      0.40611599933173687,
      0.45623572979896415,
      0.557206103469399,
      0.5738082641866681,
      0.524106198140001,
      0.47513504482931446,
      0.4726638636743331,
      0.636283900428802
    ],
    [
      0.013844675377695202,
      0.013844675377695202,
      0.013844675377695202,
      0.013964081430009845,
      0.013964081430009845,
      0.013844675377695202,
      0.013844675377695202,
      0.013844675377695202,
      0.013844675377695202,
      0.013964081430009845
    ],
    [
      0.0,
      0.0,
      0.0,
      0.0,
      0.0,
      0.0,
      0.0,
      0.0,
      0.0,
      0.0
    ],
    [
      0.5511363636363633,
      0.5511363636363633,
      0.5511363636363633,
      0.5511363636363633,
      0.5511363636363633,
      0.5511363636363633,
      0.5511363636363633,
      0.5511363636363633,
      0.5511363636363633,
      0.5539772727272723
    ],
    [
      0.9147286821705426,
      0.9147286821705426,
      0.9147286821705426,
      0.9147286821705426,
      0.9147286821705426,
      0.9147286821705426,
      0.9069767441860465,
      0.9069767441860465,
      0.9069767441860465,
      0.9069767441860465
    ],
    [
      0.0008293217055519201,
      0.0008293217055519201,
      0.0008293217055519201,
      0.0008293217055519201,
      0.0008293217055519201,
      0.0008293217055519201,
      0.26589479276675976,
      0.26589479276675976,
      0.26589479276675976,
      0.26589479276675976
    ],
    [
      0.013839394574615084,
      0.013839394574615084,
      0.013839394574615084,
      0.013839394574615084,
      0.013839394574615084,
      0.013839394574615084,
      0.17171972124421933,
      0.17171972124421933,
      0.17171972124421933,
      0.17171972124421933
    ],
    [
      0.016211983699037247,
      0.016211983699037247,
      0.016211983699037247,
      0.016211983699037247,
      0.016211983699037247,
      0.016211983699037247,
      0.8315448543412881,
      0.8315448543412881,
      0.8315448543412881,
      0.8315448543412881
    ],
    [
      0.003462978968596946,
      0.003462978968596946,
      0.003462978968596946,
      0.003462978968596946,
      0.003462978968596946,
      0.003462978968596946,
      0.08991068856237396,
      0.08991068856237396,
      0.08991068856237396,
      0.08991068856237396
    ],
    [
      0.02570328892609187,
      0.02570328892609187,
      0.02570328892609187,
      0.02570328892609187,
      0.02570328892609187,
      0.02570328892609187,
      0.8468824621117553,
      0.8468824621117553,
      0.8468824621117553,
      0.8468824621117553
    ],
    [
      0.016396494214575962,
      0.016396494214575962,
      0.016396494214575962,
      0.016396494214575962,
      0.016396494214575962,
      0.016396494214575962,
      0.3478137779031982,
      0.3478137779031982,
      0.3478137779031982,
      0.3478137779031982
    ],
    [
      0.001314006487907034,
      0.001314006487907034,
      0.001314006487907034,
      0.001314006487907034,
      0.001314006487907034,
      0.001314006487907034,
      0.3333721147748167,
      0.3333721147748167,
      0.3333721147748167,
      0.3333721147748167
    ],
    [
      0.002250657097439287,
      0.002250657097439287,
      0.002250657097439287,
      0.002250657097439287,
      0.002250657097439287,
      0.002250657097439287,
      0.47978343327509954,
      0.47978343327509954,
      0.47978343327509954,
      0.47978343327509954
    ]
  ]
]